{
    "Channel Bar Options": [
        {
            "name": "showHomeChannel",
            "type": "dropdown",
            "default": "Yes;No",
            "label": "Show Home in Channel Bar",
            "description": ""
        },
        {
            "name": "showCalendarChannel",
            "type": "dropdown",
            "default": "Yes;No",
            "label": "Show Calendar in Channel Bar",
            "description": ""
        },
        {
            "name": "sectionMax",
            "type": "number",
            "default": "15",
            "label": "Set Section Max",
            "description": ""
        },
        {
            "name": "hideSingleSectionDD",
            "type": "dropdown",
            "default": "Yes;No",
            "label": "Hide Single Section Dropdown",
            "description": ""
        }
    ],
    "Template Options": [
        {
            "name": "showLogo",
            "type": "boolean",
            "default": "false",
            "label": "Show Header Logo",
            "description": ""
        },
        {
            "name": "logoSrc",
            "type": "image",
            "default": "",
            "label": "Header Logo",
            "description": ""
        },
        {
            "name": "siteNameOne",
            "type": "text",
            "default": "",
            "label": "Site Name Line One",
            "description": "Optional"
        },
        {
            "name": "siteNameTwo",
            "type": "text",
            "default": "",
            "label": "Site Name Line Two",
            "description": "Optional"
        }
    ]
}